{
  "language": "typescript",
  "app": "npx ts-node main.ts",
  "projectId": "typescript-cdktf",
  "sendCrashReports": "false",
  "terraformProviders": [
    "google@~> 4.34.0",
    "null@~> 3.1",
    "archive@~> 2.2.0"
  ],
  "terraformModules": [],
  "context": {
    "excludeStackIdFromLogicalIds": "true",
    "allowSepCharsInLogicalIds": "true"
  }
}
